Webスクレイピング
…
Warning: There was 1 warning in `mutate()`.
ℹ In argument: `ranking = parse_number(ranking)`.
Caused by warning:
! 1 parsing failure.
row col expected   actual
 26  -- a number Recently

rankings_df

# A tibble: 26 × 2
   ranking title                         
     <dbl> <chr>                         
 1       1 Shôshanku no sora ni          
 2       2 Godfather                     
 3       3 Dâku naito                    
 4       4 Godfather Part II             
 5       5 12 Angry Men                  
 6       6 Rôdo obu za ringu - Ô no kikan
 7       7 Schindler's List              
 8       8 Pulp Fiction                  
 9       9 Lord of the Rings             
10      10 Zoku yuuhi no ganman          
# ℹ 16 more rows
…
