作業メモ
…
         関税 = `（控除）関税`,
         輸入品税 = `（控除）輸入品商品税`,
         輸入計 = `（控除）輸入計`,
         国内総生産_支出側= `国内総生産\n（支出側）`       
         ) |>
        mutate(
            工業 = 鉱業 + 製造業,
            サービス業 = 建設 + 電力等 + 商業 + 金融等 + 不動産 + 運輸 + 情報通信 + 公務 + サービス + 分類不明,
            家計 = 農業 + 工業 + サービス業,
            .after = 農業
        ) |>
  select(c(農業, 工業, サービス業, 家計)) 
data_new

# A tibble: 24 × 4
      農業      工業 サービス業      家計
     <dbl>     <dbl>      <dbl>     <dbl>
 1 1643017   7798737    1409202  10850956
 2     626  12641122    3816899  16458647
 3 2563648 132496747   63690550 198750945
 4   65697   1204471    7849545   9119713
 5  112781   5613119   12553179  18279079
 6  543366  17458217   18812557  36814140
 7  226281   3914007   25349149  29489437
 8    4520    628497    7609620   8242637
 9  633183   8680253   23223005  32536441
10   37206   2496874   24158330  26692410
# ℹ 14 more rows
